{
    "@context": {
        "id": "@id",
        "type": "@type",
        "ex": "https://example.org/examples#",
        "schema": "http://schema.org/",
        "xsd": "https://www.w3.org/2001/XMLSchema#",
        "EmployeeCredential": {
            "@id": "ex:EmployeeCredential",
            "@context": {
                "id": "@id",
                "type": "@type",
                "name": "http://schema.org/name",
                "description": "http://schema.org/description"
            }
        },
        "Employee": {
            "@id": "ex:Employee",
            "@context": {
                "@protected": true,
                "id": "@id",
                "type": "@type",
                "employeeId": {
                    "@id": "ex:employeeId",
                    "@type": "xsd:string"
                },
                "title": "schema:honorificPrefix",
                "firstName": "schema:givenName",
                "lastName": "schema:familyName",
                "emailAddress": {
                    "@id": "schema:email",
                    "@type": "@id"
                },
                "jobTitle": "schema:jobTitle",
                "corporationName": "schema:legalName",
                "corporationId": {
                    "@id": "ex:corporationId",
                    "@type": "xsd:string"
                }
            }
        }
    }
}